Package data
…
Load your library

library(mcmsupply)

1. Country and area classification

Country and area classification data is used as the a link between
low-level divisions (country) and higher-level divisions (sub-regions,
regions). After loading the package, enter
Country and area classification into the console to access
this data.

Country_and_area_classification

## # A tibble: 231 × 8
##    `Country or area`   `ISO Code` `Major area`         Region `Developed region`
##    <chr>                    <dbl> <chr>                <chr>  <chr>             
##  1 Afghanistan                  4 Asia                 South… No                
##  2 Albania                      8 Europe               South… Yes               
##  3 Algeria                     12 Africa               North… No                
##  4 American Samoa              16 Oceania              Polyn… No                
##  5 Andorra                     20 Europe               South… Yes               
##  6 Angola                      24 Africa               Middl… No                
##  7 Anguilla                   660 Latin America and t… Carib… No                
##  8 Antigua and Barbuda         28 Latin America and t… Carib… No                
##  9 Argentina                   32 Latin America and t… South… No                
## 10 Armenia                     51 Asia                 Weste… No                
## # ℹ 221 more rows
## # ℹ 3 more variables: `Least developed country` <chr>,
## #   `Sub-Saharan Africa` <chr>, FP2020 <chr>

??Country_and_area_classification

1. Country names

Country names is to inform users of what countries are available at
the national and subnational administrative division in the preloaded
data of the mcmsupply package. After loading the package, enter
country_names into the console to access this data.

country_names

## # A tibble: 30 × 3
##    `Country names`              National level data ava…¹ Subnational level da…²
##    <chr>                        <chr>                     <chr>                 
##  1 Afghanistan                  Yes                       Yes                   
##  2 Benin                        Yes                       Yes                   
##  3 Burkina Faso                 Yes                       Yes                   
##  4 Cameroon                     Yes                       Yes                   
##  5 Congo                        Yes                       No                    
##  6 Democratic Republic of Congo Yes                       Yes                   
##  7 Cote d’Ivoire                Yes                       Yes                   
##  8 Ethiopia                     Yes                       Yes                   
##  9 Ghana                        Yes                       Yes                   
## 10 Guinea                       Yes                       Yes                   
## # ℹ 20 more rows
## # ℹ abbreviated names: ¹​`National level data available`,
## #   ²​`Subnational level data available`
…
7. Family planning source data

These are are two family planning commodity source datasets provided
in this package - one for the national level observations,
national_FPsource_data and one for the subnational level
data subnat_FPsource_data. For the national level data,
there is a vignette
calculate_FPsource_national_data_from_DHSmicrodata in the
inst/data-raw folder that explains how the national level
data was calculated using the DHS micro-data. A similar approach was
used for the subnational data using IPUMS data.

national_FPsource_data

## # A tibble: 2,448 × 9
## # Groups:   year, Method, Country [903]
##     year Country     Super_region Method average_year sector_category proportion
##    <dbl> <chr>       <chr>        <chr>         <dbl> <chr>                <dbl>
##  1  2008 Sierra Leo… Western Afr… Injec…        2008. Commercial_med…    0.265  
##  2  2008 Sierra Leo… Western Afr… Injec…        2008. Other              0.00540
##  3  2008 Sierra Leo… Western Afr… Injec…        2008. Public             0.730  
##  4  2008 Sierra Leo… Western Afr… OC Pi…        2008. Commercial_med…    0.587  
##  5  2008 Sierra Leo… Western Afr… OC Pi…        2008. Other              0.0224 
##  6  2008 Sierra Leo… Western Afr… OC Pi…        2008. Public             0.390  
##  7  2013 Sierra Leo… Western Afr… Impla…        2014. Commercial_med…    0.240  
##  8  2013 Sierra Leo… Western Afr… Impla…        2014. Other              0.00567
##  9  2013 Sierra Leo… Western Afr… Impla…        2014. Public             0.755  
## 10  2013 Sierra Leo… Western Afr… Injec…        2014. Commercial_med…    0.198  
## # ℹ 2,438 more rows
## # ℹ 2 more variables: SE.proportion <dbl>, n <dbl>
…
